<?xml version="1.0" encoding="utf-8"?>
<!-- Generator: Adobe Illustrator 24.2.1, SVG Export Plug-In . SVG Version: 6.00 Build 0)  -->
<svg version="1.1" id="Layer_2" xmlns="http://www.w3.org/2000/svg" xmlns:xlink="http://www.w3.org/1999/xlink" x="0px" y="0px"
	 viewBox="0 0 247 45.79" style="enable-background:new 0 0 247 45.79;" xml:space="preserve">
<style type="text/css">
	.st0{fill-rule:evenodd;clip-rule:evenodd;fill:#236192;}
	.st1{fill:#5795CA;}
	.st2{fill-rule:evenodd;clip-rule:evenodd;fill:#298FC2;}
	.st3{fill-rule:evenodd;clip-rule:evenodd;fill:#D9C756;}
	.st4{fill:#298FC2;}
</style>
<path class="st0" d="M43.34,1.82c-9.66-4-15.8,1.74-18.56,8.42c-5.5,13.33,1.48,32.81,1.48,32.81s18.91-8.76,24.24-22.15
	C53.12,14.34,52.85,5.76,43.34,1.82z"/>
<g>
	<path class="st1" d="M239.86,20.48c0-1.91,1.38-3.35,3.32-3.35c1.91,0,3.32,1.44,3.32,3.35c0,1.95-1.41,3.36-3.32,3.36
		C241.25,23.85,239.86,22.44,239.86,20.48z M245.84,20.5c0-1.59-1.13-2.73-2.66-2.73c-1.58,0-2.67,1.14-2.67,2.73
		c0,1.58,1.1,2.72,2.67,2.72C244.71,23.22,245.84,22.08,245.84,20.5z M241.8,18.34h1.31c1.05,0,1.58,0.53,1.58,1.28
		c0,0.6-0.34,1.05-0.95,1.22l0.99,1.74h-0.71l-0.92-1.67h-0.68v1.67h-0.63V18.34z M243.08,20.39c0.6,0,0.92-0.29,0.92-0.77
		c0-0.41-0.26-0.74-0.9-0.74h-0.66v1.5H243.08z"/>
</g>
<path class="st2" d="M26.27,43.05c0,0-6.98-19.48-1.48-32.81c0.41-0.98,0.89-1.94,1.45-2.85c-3.25-5.17-8.97-8.91-17.05-5.57
	c-9.66,4-9.94,12.41-7.17,19.07C7.55,34.21,26.27,43.05,26.27,43.05L26.27,43.05L26.27,43.05z"/>
<path class="st3" d="M45.6,9.44c-1.84-1.84-3.77-1.48-5.23-0.41c-0.3-1.76-1.42-3.4-3.97-3.4c-3.05,0-4.06,2.23-4.06,4.33
	c0,4.2,3.54,9.92,3.54,9.92s6.59-1.49,9.52-4.5C46.83,13.9,47.72,11.56,45.6,9.44z"/>
<g>
	<path class="st4" d="M80.75,17.38c0,4.06-2.85,6.43-7.78,6.43h-6.94V2.78h6.64c5.26,0,7.09,2.25,7.09,5.35
		c0,1.77-0.84,3.18-2.34,4.12C79.31,12.9,80.75,14.41,80.75,17.38z M70.21,5.99v5.41h2.73c1.77,0,2.94-1.11,2.94-2.79
		s-0.96-2.61-3.15-2.61H70.21z M76.73,17.56c0-1.89-1.08-2.91-3.7-2.91h-2.82v5.95H73C75.38,20.63,76.73,19.54,76.73,17.56z"/>
	<path class="st4" d="M95.32,18.55h-7.33l-1.62,5.26h-4.45l7.42-21.03h4.69l7.42,21.03h-4.51L95.32,18.55z M94.33,15.25l-2.67-8.68
		l-2.67,8.68H94.33z"/>
	<path class="st4" d="M118.94,17.38c0,4.06-2.85,6.43-7.78,6.43h-6.94V2.78h6.64c5.26,0,7.09,2.25,7.09,5.35
		c0,1.77-0.84,3.18-2.34,4.12C117.49,12.9,118.94,14.41,118.94,17.38z M108.39,5.99v5.41h2.73c1.77,0,2.94-1.11,2.94-2.79
		s-0.96-2.61-3.15-2.61H108.39z M114.91,17.56c0-1.89-1.08-2.91-3.7-2.91h-2.82v5.95h2.79C113.56,20.63,114.91,19.54,114.91,17.56z"
		/>
	<path class="st4" d="M131.01,15.16v8.65h-4.12v-8.38l-7.18-12.65h4.99l4.33,8.59l4.39-8.59h4.78L131.01,15.16z"/>
	<path class="st4" d="M139.69,23.06v-3.91c1.62,0.93,3.88,1.62,5.89,1.62c2.64,0,4.06-1.05,4.06-2.97c0-1.59-0.78-2.67-3.97-3.27
		c-3.64-0.72-6.25-2.46-6.25-6.04c0-3.54,2.55-6.19,7.81-6.19c2.19,0,3.76,0.3,5.38,0.96v3.73c-1.56-0.84-3.54-1.23-5.29-1.23
		c-2.67,0-3.76,0.96-3.76,2.37c0,1.47,0.87,2.16,4.06,2.79c3.7,0.72,6.13,2.55,6.13,6.46c0,3.88-2.43,6.85-8.05,6.85
		C143.15,24.23,141.29,23.84,139.69,23.06z"/>
	<path class="st4" d="M168.26,18.55h-7.33l-1.62,5.26h-4.45l7.42-21.03h4.69l7.42,21.03h-4.51L168.26,18.55z M167.27,15.25
		l-2.67-8.68l-2.67,8.68H167.27z"/>
	<path class="st4" d="M181.27,6.29v5.56h8.14v3.57h-8.14v8.38h-4.12V2.78h13.01v3.51H181.27z"/>
	<path class="st4" d="M207.08,20.23v3.58h-13.37V2.78h13.07v3.51h-8.95v4.9h8.2v3.64h-8.2v5.41H207.08z"/>
	<path class="st4" d="M224.53,10.67v13.14h-2.1l-6.23-8.88l0.06,1.13v7.75h-2.38V10.67h2.1l6.23,8.96l-0.06-1.24v-7.72H224.53z"/>
	<path class="st4" d="M237.39,21.63v2.18h-10.5V21.8l7.15-8.96h-7.1v-2.18h10.08v2.01l-7.15,8.96H237.39z"/>
	<path class="st4" d="M72.35,33.62h-3.06l-1.31,8.96h-1.73l1.29-8.96h-3.11l0.22-1.55h7.9L72.35,33.62z"/>
	<path class="st4" d="M74.64,41.43c0.77,0,1.43-0.2,2.22-0.68l-0.19,1.44c-0.57,0.38-1.44,0.6-2.37,0.6c-2.01,0-3.15-1.11-3.15-3.09
		c0-2.87,1.79-4.53,3.87-4.53c1.53,0,2.36,0.83,2.36,2c0,1.77-1.62,2.6-4.5,2.75C72.97,40.93,73.51,41.43,74.64,41.43z M72.89,38.68
		c1.98-0.08,2.84-0.54,2.84-1.43c0-0.44-0.24-0.75-0.84-0.75C73.86,36.51,73.12,37.44,72.89,38.68z"/>
	<path class="st4" d="M91.82,32.08L90.3,42.59h-1.73l0.66-4.55h-4.76l-0.66,4.55h-1.73l1.53-10.51h1.71l-0.65,4.43h4.76l0.65-4.43
		H91.82z"/>
	<path class="st4" d="M99.64,35.73l-0.99,6.86h-1.47l0.06-0.9c-0.5,0.66-1.19,1.11-2.25,1.11c-1.25,0-2.27-0.9-2.27-2.75
		c0-3.2,1.86-4.88,4.38-4.88C98.13,35.17,99.07,35.4,99.64,35.73z M97.51,39.09l0.32-2.4c-0.29-0.11-0.57-0.12-0.96-0.12
		c-1.55,0-2.46,1.41-2.46,3.18c0,1.04,0.38,1.62,1.16,1.62C96.52,41.37,97.23,40.47,97.51,39.09z"/>
	<path class="st4" d="M107.98,35.35l-1.05,7.24h-1.47l0.03-0.87c-0.48,0.65-1.19,1.08-2.27,1.08c-1.65,0-2.34-1.13-2.09-2.82
		l0.65-4.62h1.68l-0.63,4.44c-0.17,1.19,0.32,1.53,1.02,1.53c0.99,0,1.64-0.8,1.86-1.98l0.59-3.99H107.98z"/>
	<path class="st4" d="M120.26,37.81l-0.63,4.77h-1.68l0.63-4.47c0.13-1.1-0.3-1.49-0.95-1.49c-0.86,0-1.64,0.71-1.86,2.03
		l-0.54,3.93h-1.68l0.63-4.47c0.15-1.1-0.3-1.49-0.94-1.49c-0.81,0-1.56,0.65-1.83,1.85l-0.61,4.11h-1.67l1.07-7.24h1.46l-0.05,0.95
		c0.51-0.68,1.26-1.13,2.24-1.13c1.08,0,1.74,0.54,1.97,1.38c0.51-0.81,1.32-1.38,2.43-1.38C119.8,35.17,120.46,36.31,120.26,37.81z
		"/>
	<path class="st4" d="M128.75,35.73l-0.99,6.86h-1.47l0.06-0.9c-0.5,0.66-1.19,1.11-2.25,1.11c-1.25,0-2.27-0.9-2.27-2.75
		c0-3.2,1.86-4.88,4.38-4.88C127.24,35.17,128.18,35.4,128.75,35.73z M126.62,39.09l0.32-2.4c-0.29-0.11-0.57-0.12-0.96-0.12
		c-1.55,0-2.46,1.41-2.46,3.18c0,1.04,0.38,1.62,1.16,1.62C125.63,41.37,126.34,40.47,126.62,39.09z"/>
	<path class="st4" d="M135.17,35.2l-0.27,1.7c-0.15-0.03-0.27-0.05-0.46-0.05c-1.05,0-2.04,0.65-2.36,2.21l-0.51,3.53h-1.67
		l1.05-7.24h1.47l-0.08,1.14c0.54-0.77,1.34-1.32,2.36-1.32C134.88,35.17,135.05,35.17,135.17,35.2z"/>
	<path class="st4" d="M142.21,35.73l-0.99,6.86h-1.47l0.06-0.9c-0.5,0.66-1.19,1.11-2.25,1.11c-1.25,0-2.27-0.9-2.27-2.75
		c0-3.2,1.86-4.88,4.38-4.88C140.69,35.17,141.64,35.4,142.21,35.73z M140.08,39.09l0.32-2.4c-0.29-0.11-0.57-0.12-0.96-0.12
		c-1.55,0-2.46,1.41-2.46,3.18c0,1.04,0.38,1.62,1.16,1.62C139.09,41.37,139.79,40.47,140.08,39.09z"/>
	<path class="st4" d="M154.95,34.84c0,2.25-1.32,3.83-4.25,3.83h-1.31l-0.57,3.92h-1.73l1.53-10.51h3.05
		C153.93,32.08,154.95,33.16,154.95,34.84z M153.25,35.05c0-0.92-0.51-1.5-1.76-1.5h-1.37l-0.52,3.63h1.32
		C152.52,37.18,153.25,36.3,153.25,35.05z"/>
	<path class="st4" d="M156.86,39.91c0.11,1.02,0.65,1.52,1.77,1.52c0.77,0,1.43-0.2,2.22-0.68l-0.19,1.44
		c-0.57,0.38-1.44,0.6-2.37,0.6c-2.01,0-3.15-1.11-3.15-3.09c0-2.87,1.79-4.53,3.87-4.53c1.53,0,2.36,0.83,2.36,2
		C161.36,38.94,159.74,39.76,156.86,39.91z M161.68,32.24l-0.21,1.5h-4.67l0.21-1.5H161.68z M159.73,37.26
		c0-0.44-0.24-0.75-0.84-0.75c-1.04,0-1.77,0.93-2,2.18C158.87,38.61,159.73,38.14,159.73,37.26z"/>
	<path class="st4" d="M169.46,37.98c0,3.29-1.86,4.82-4.28,4.82c-0.41,0-0.8-0.03-1.14-0.08l-0.38,2.57h-1.68l1.44-9.94h1.47
		l-0.03,0.92c0.5-0.66,1.2-1.1,2.25-1.1C168.42,35.17,169.46,36.09,169.46,37.98z M167.78,38.29c0-1.07-0.4-1.67-1.23-1.67
		c-1.02,0-1.67,0.81-1.94,2.22l-0.34,2.36c0.34,0.12,0.69,0.17,1.17,0.17C166.91,41.37,167.78,40.15,167.78,38.29z"/>
	<path class="st4" d="M171.67,35.35h1.68l-1.05,7.24h-1.68L171.67,35.35z M171.71,32.98c0-0.72,0.53-1.17,1.2-1.17
		c0.69,0,1.1,0.45,1.1,1.02c0,0.69-0.46,1.16-1.2,1.16C172.11,33.98,171.71,33.55,171.71,32.98z"/>
	<path class="st4" d="M183.64,39.78h-3.81l-1.29,2.81h-1.82l5.16-10.51h1.94l2.12,10.51h-1.85L183.64,39.78z M183.41,38.41
		l-0.77-4.77l-2.19,4.77H183.41z"/>
	<path class="st4" d="M187.31,39.64c0-2.76,1.46-4.47,3.8-4.47c1.65,0,3,0.9,3,3.11c0,2.75-1.35,4.5-3.72,4.52
		C188.52,42.8,187.31,41.81,187.31,39.64z M192.43,38.35c0-1.28-0.56-1.85-1.5-1.85c-1.28,0-1.94,1.4-1.94,3.08
		c0,1.29,0.54,1.86,1.5,1.86C191.84,41.44,192.43,40.06,192.43,38.35z"/>
	<path class="st4" d="M197.91,40c-0.15,1.04,0.38,1.34,0.95,1.34c0.36,0,0.59-0.04,0.98-0.19l-0.19,1.37
		c-0.29,0.17-0.75,0.24-1.26,0.24c-1.34,0-2.48-0.5-2.19-2.43l0.53-3.6h-1.44l0.18-1.37h1.52l0.29-1.76h1.59l-0.26,1.76h2.04
		l-0.2,1.37h-2.04L197.91,40z"/>
	<path class="st4" d="M204.62,41.43c0.77,0,1.43-0.2,2.22-0.68l-0.19,1.44c-0.57,0.38-1.44,0.6-2.37,0.6
		c-2.01,0-3.15-1.11-3.15-3.09c0-2.87,1.79-4.53,3.87-4.53c1.53,0,2.36,0.83,2.36,2c0,1.77-1.62,2.6-4.5,2.75
		C202.96,40.93,203.5,41.43,204.62,41.43z M202.88,38.68c1.98-0.08,2.84-0.54,2.84-1.43c0-0.44-0.24-0.75-0.84-0.75
		C203.84,36.51,203.11,37.44,202.88,38.68z"/>
	<path class="st4" d="M215.33,35.73l-0.99,6.86h-1.47l0.06-0.9c-0.5,0.66-1.19,1.11-2.25,1.11c-1.25,0-2.27-0.9-2.27-2.75
		c0-3.2,1.86-4.88,4.38-4.88C213.81,35.17,214.76,35.4,215.33,35.73z M213.2,39.09l0.32-2.4c-0.29-0.11-0.57-0.12-0.96-0.12
		c-1.55,0-2.46,1.41-2.46,3.18c0,1.04,0.38,1.62,1.16,1.62C212.21,41.37,212.91,40.47,213.2,39.09z"/>
	<path class="st4" d="M221.75,35.2l-0.27,1.7c-0.15-0.03-0.27-0.05-0.46-0.05c-1.05,0-2.04,0.65-2.36,2.21l-0.51,3.53h-1.67
		l1.05-7.24H219l-0.08,1.14c0.54-0.77,1.34-1.32,2.36-1.32C221.46,35.17,221.63,35.17,221.75,35.2z"/>
	<path class="st4" d="M221.88,39.64c0-2.76,1.46-4.47,3.8-4.47c1.65,0,3,0.9,3,3.11c0,2.75-1.35,4.5-3.72,4.52
		C223.1,42.8,221.88,41.81,221.88,39.64z M227,38.35c0-1.28-0.56-1.85-1.5-1.85c-1.28,0-1.94,1.4-1.94,3.08
		c0,1.29,0.54,1.86,1.5,1.86C226.42,41.44,227,40.06,227,38.35z"/>
	<path class="st4" d="M236.9,35.73l-0.99,6.86h-1.47l0.06-0.9c-0.5,0.66-1.19,1.11-2.25,1.11c-1.25,0-2.27-0.9-2.27-2.75
		c0-3.2,1.86-4.88,4.38-4.88C235.38,35.17,236.33,35.4,236.9,35.73z M234.77,39.09l0.32-2.4c-0.29-0.11-0.57-0.12-0.96-0.12
		c-1.55,0-2.46,1.41-2.46,3.18c0,1.04,0.38,1.62,1.16,1.62C233.78,41.37,234.48,40.47,234.77,39.09z"/>
</g>
</svg>
